c:\automacao\getraktest\GetrakTest\src\test\java\br\sb\getrak\pages\LoginPage.java
c:\automacao\getraktest\GetrakTest\src\test\java\br\sb\getrak\core\DriverFactory.java
c:\automacao\getraktest\GetrakTest\src\test\java\br\sb\getrak\core\Propriedades.java
c:\automacao\getraktest\GetrakTest\src\test\java\br\sb\getrak\steps\Sinistro.java
c:\automacao\getraktest\GetrakTest\src\test\java\br\sb\getrak\steps\Base.java
c:\automacao\getraktest\GetrakTest\src\test\java\br\sb\getrak\core\Data.java
c:\automacao\getraktest\GetrakTest\src\test\java\br\sb\getrak\runner\RunnerTest.java
c:\automacao\getraktest\GetrakTest\src\test\java\br\sb\getrak\core\BasePage.java
c:\automacao\getraktest\GetrakTest\src\test\java\br\sb\getrak\pages\SinistroPage.java
c:\automacao\getraktest\GetrakTest\src\test\java\br\sb\getrak\conexao\ConexaoMysql.java
c:\automacao\getraktest\GetrakTest\src\test\java\br\sb\getrak\steps\Login.java
